<?xml version="1.0" encoding="UTF-8" standalone="no"?>
<svg
   xmlns:dc="http://purl.org/dc/elements/1.1/"
   xmlns:cc="http://creativecommons.org/ns#"
   xmlns:rdf="http://www.w3.org/1999/02/22-rdf-syntax-ns#"
   xmlns:svg="http://www.w3.org/2000/svg"
   xmlns="http://www.w3.org/2000/svg"
   xml:space="preserve"
   viewBox="-5 -5 138 138"
   version="1.1"
   style="enable-background:new 0 0 128 128;"
   id="Layer_1"><metadata
     id="metadata19"><rdf:RDF><cc:Work
         rdf:about=""><dc:format>image/svg+xml</dc:format><dc:type
           rdf:resource="http://purl.org/dc/dcmitype/StillImage" /><dc:title></dc:title></cc:Work></rdf:RDF></metadata><defs
     id="defs17"><filter
       id="filter4539"
       style="color-interpolation-filters:sRGB;"><feFlood
         id="feFlood4529"
         result="flood"
         flood-color="rgb(0,0,0)"
         flood-opacity="0.498039" /><feComposite
         id="feComposite4531"
         result="composite1"
         operator="in"
         in2="SourceGraphic"
         in="flood" /><feGaussianBlur
         id="feGaussianBlur4533"
         result="blur"
         stdDeviation="2.1"
         in="composite1" /><feOffset
         id="feOffset4535"
         result="offset"
         dy="2.4"
         dx="2.7" /><feComposite
         id="feComposite4537"
         result="composite2"
         operator="over"
         in2="offset"
         in="SourceGraphic" /></filter></defs><style
     id="style2"
     type="text/css">
	.st0{fill:#31AF91;}
	.st1{fill:#FFFFFF;}
</style><circle
     style="fill:#ff6600;filter:url(#filter4539)"
     id="circle4"
     r="64"
     cy="64"
     cx="64"
     class="st0" /><g
     id="g12"><path
       id="path6"
       d="M103,29H25c-0.6,0-1,0.4-1,1v12c0,0.6,0.4,1,1,1h78c0.6,0,1-0.4,1-1V30C104,29.4,103.6,29,103,29z"
       class="st1" /><path
       id="path8"
       d="M103,57H25c-0.6,0-1,0.4-1,1v12c0,0.6,0.4,1,1,1h78c0.6,0,1-0.4,1-1V58C104,57.4,103.6,57,103,57z"
       class="st1" /><path
       id="path10"
       d="M103,85H25c-0.6,0-1,0.4-1,1v12c0,0.6,0.4,1,1,1h78c0.6,0,1-0.4,1-1V86C104,85.4,103.6,85,103,85z"
       class="st1" /></g></svg>