<?xml version="1.0" encoding="UTF-8" standalone="no"?>
<svg
   xmlns:dc="http://purl.org/dc/elements/1.1/"
   xmlns:cc="http://creativecommons.org/ns#"
   xmlns:rdf="http://www.w3.org/1999/02/22-rdf-syntax-ns#"
   xmlns:svg="http://www.w3.org/2000/svg"
   xmlns="http://www.w3.org/2000/svg"
   id="svg8"
   version="1.1"
   viewBox="97 90 0.8 67"
   preserveAspectRatio="xMidYMid meet"
   >
  <defs
     id="defs2">
    <filter
       id="filter1098"
       style="color-interpolation-filters:sRGB;">
      <feFlood
         id="feFlood1088"
         result="flood"
         flood-color="rgb(0,0,0)"
         flood-opacity="0.498039" />
      <feComposite
         id="feComposite1090"
         result="composite1"
         operator="in"
         in2="SourceGraphic"
         in="flood" />
      <feGaussianBlur
         id="feGaussianBlur1092"
         result="blur"
         stdDeviation="1.6"
         in="composite1" />
      <feOffset
         id="feOffset1094"
         result="offset"
         dy="1.3"
         dx="2.7" />
      <feComposite
         id="feComposite1096"
         result="composite2"
         operator="over"
         in2="offset"
         in="SourceGraphic" />
    </filter>
    <filter
       id="filter1380"
       style="color-interpolation-filters:sRGB;">
      <feFlood
         id="feFlood1370"
         result="flood"
         flood-color="rgb(0,0,0)"
         flood-opacity="0.498039" />
      <feComposite
         id="feComposite1372"
         result="composite1"
         operator="in"
         in2="SourceGraphic"
         in="flood" />
      <feGaussianBlur
         id="feGaussianBlur1374"
         result="blur"
         stdDeviation="2.1"
         in="composite1" />
      <feOffset
         id="feOffset1376"
         result="offset"
         dy="2.5"
         dx="3.5" />
      <feComposite
         id="feComposite1378"
         result="composite2"
         operator="over"
         in2="offset"
         in="SourceGraphic" />
    </filter>
  </defs>
  <metadata
     id="metadata5">
    <rdf:RDF>
      <cc:Work
         rdf:about="">
        <dc:format>image/svg+xml</dc:format>
        <dc:type
           rdf:resource="http://purl.org/dc/dcmitype/StillImage" />
        <dc:title></dc:title>
      </cc:Work>
    </rdf:RDF>
  </metadata>
  <g
     id="layer1">
    <path
       id="path1100"
       d="M 97.601149,91.364046 A 31.270535,30.067821 0 0 0 66.330708,121.43198 31.270535,30.067821 0 0 0 97.601149,151.49991 31.270535,30.067821 0 0 0 128.87159,121.43198 31.270535,30.067821 0 0 0 97.601149,91.364046 Z M 80.938086,103.43979 c 0.32535,-0.0266 0.707999,0.0391 1.122929,0.18862 0.414919,0.14949 0.862264,0.38286 1.318265,0.69092 0.456009,0.30805 0.920329,0.69081 1.368909,1.13998 l 13.05398,13.07052 12.669511,-12.65349 c 0.44916,-0.44859 0.92061,-0.83751 1.38907,-1.15704 0.46845,-0.31951 0.93374,-0.56949 1.37045,-0.74 0.4367,-0.17051 0.84499,-0.26145 1.1989,-0.26303 0.17696,-8e-4 0.3401,0.0199 0.48679,0.0651 0.1467,0.0452 0.27702,0.1141 0.38706,0.20774 0.11005,0.0936 0.19471,0.2078 0.25528,0.33899 0.0606,0.13119 0.0968,0.27917 0.11007,0.44184 0.0266,0.32536 -0.0391,0.70801 -0.18862,1.12293 -0.14948,0.41493 -0.38285,0.86226 -0.69091,1.31826 -0.30806,0.456 -0.69083,0.92032 -1.13999,1.36891 l -12.90877,12.89224 12.60543,12.62197 c 0.44858,0.44915 0.83753,0.92061 1.15704,1.38906 0.31951,0.46846 0.56949,0.93376 0.74001,1.37046 0.17052,0.43671 0.26103,0.84497 0.26303,1.19889 8e-4,0.17695 -0.0204,0.3401 -0.0656,0.48679 -0.0452,0.14669 -0.11414,0.27702 -0.20774,0.38706 -0.0936,0.11005 -0.20781,0.19468 -0.339,0.25528 -0.13119,0.0606 -0.27915,0.0968 -0.44183,0.11007 -0.32535,0.0266 -0.708,-0.0391 -1.12293,-0.18862 -0.41492,-0.14948 -0.86226,-0.38285 -1.31827,-0.69091 -0.45599,-0.30805 -0.92031,-0.69081 -1.36891,-1.13998 l -12.844171,-12.86072 -12.7832,12.76666 c -0.449159,0.4486 -0.920602,0.83752 -1.389062,1.15704 -0.468451,0.31951 -0.933749,0.5695 -1.37046,0.74001 -0.4367,0.1705 -0.844973,0.26145 -1.198893,0.26303 -0.176959,7.8e-4 -0.340101,-0.02 -0.486791,-0.0651 -0.146701,-0.0452 -0.277016,-0.1141 -0.387057,-0.20774 -0.11004,-0.0936 -0.194712,-0.20781 -0.255283,-0.339 -0.0606,-0.13119 -0.0968,-0.27916 -0.110069,-0.44183 -0.0266,-0.32535 0.0391,-0.70801 0.188619,-1.12293 0.149479,-0.41493 0.382862,-0.86226 0.690914,-1.31827 0.30806,-0.456 0.690822,-0.92032 1.139981,-1.36891 L 94.859199,121.46919 82.04396,108.63741 c -0.448588,-0.44917 -0.837526,-0.92061 -1.157034,-1.38906 -0.319511,-0.46846 -0.569497,-0.93376 -0.740008,-1.37046 -0.170529,-0.43671 -0.261032,-0.84497 -0.263032,-1.19889 -7.99e-4,-0.17696 0.02043,-0.34011 0.06563,-0.4868 0.04518,-0.14669 0.114139,-0.27701 0.207738,-0.38705 0.09364,-0.11005 0.207809,-0.19468 0.338997,-0.25528 0.131191,-0.0606 0.279154,-0.0968 0.441835,-0.11008 z"
       style="opacity:1;fill:#ff6318;fill-opacity:0.91959797;stroke-width:0.1;stroke-linecap:round;stroke-linejoin:round;stroke-miterlimit:4;stroke-dasharray:none;paint-order:markers stroke fill;filter:url(#filter1380)" />
  </g>
</svg>
