<?xml version="1.0" encoding="UTF-8" standalone="no"?>
<svg
   xmlns:dc="http://purl.org/dc/elements/1.1/"
   xmlns:cc="http://creativecommons.org/ns#"
   xmlns:rdf="http://www.w3.org/1999/02/22-rdf-syntax-ns#"
   xmlns:svg="http://www.w3.org/2000/svg"
   xmlns="http://www.w3.org/2000/svg"
   viewBox="222.5 143.5 0.8 67"
   preserveAspectRatio="xMidYMid meet"
   version="1.1"
   id="svg8">
  <defs
     id="defs2">
    <filter
       style="color-interpolation-filters:sRGB;"
       id="filter1098">
      <feFlood
         flood-opacity="0.498039"
         flood-color="rgb(0,0,0)"
         result="flood"
         id="feFlood1088" />
      <feComposite
         in="flood"
         in2="SourceGraphic"
         operator="in"
         result="composite1"
         id="feComposite1090" />
      <feGaussianBlur
         in="composite1"
         stdDeviation="1.6"
         result="blur"
         id="feGaussianBlur1092" />
      <feOffset
         dx="2.7"
         dy="1.3"
         result="offset"
         id="feOffset1094" />
      <feComposite
         in="SourceGraphic"
         in2="offset"
         operator="over"
         result="composite2"
         id="feComposite1096" />
    </filter>
    <filter
       style="color-interpolation-filters:sRGB;"
       id="filter1380">
      <feFlood
         flood-opacity="0.498039"
         flood-color="rgb(0,0,0)"
         result="flood"
         id="feFlood1370" />
      <feComposite
         in="flood"
         in2="SourceGraphic"
         operator="in"
         result="composite1"
         id="feComposite1372" />
      <feGaussianBlur
         in="composite1"
         stdDeviation="2.1"
         result="blur"
         id="feGaussianBlur1374" />
      <feOffset
         dx="3.5"
         dy="2.5"
         result="offset"
         id="feOffset1376" />
      <feComposite
         in="SourceGraphic"
         in2="offset"
         operator="over"
         result="composite2"
         id="feComposite1378" />
    </filter>
    <filter
       style="color-interpolation-filters:sRGB"
       id="filter1380-4">
      <feFlood
         flood-opacity="0.498039"
         flood-color="rgb(0,0,0)"
         result="flood"
         id="feFlood1370-3" />
      <feComposite
         in="flood"
         in2="SourceGraphic"
         operator="in"
         result="composite1"
         id="feComposite1372-5" />
      <feGaussianBlur
         in="composite1"
         stdDeviation="2.1"
         result="blur"
         id="feGaussianBlur1374-3" />
      <feOffset
         dx="3.5"
         dy="2.5"
         result="offset"
         id="feOffset1376-7" />
      <feComposite
         in="SourceGraphic"
         in2="offset"
         operator="over"
         result="composite2"
         id="feComposite1378-2" />
    </filter>
  </defs>
  <metadata
     id="metadata5">
    <rdf:RDF>
      <cc:Work
         rdf:about="">
        <dc:format>image/svg+xml</dc:format>
        <dc:type
           rdf:resource="http://purl.org/dc/dcmitype/StillImage" />
        <dc:title></dc:title>
      </cc:Work>
    </rdf:RDF>
  </metadata>
  <g
     transform="translate(-0.1996196)"
     id="layer1">
    <path
       style="opacity:1;fill:#f04f0b;fill-opacity:0.91959797;stroke-width:0.1;stroke-linecap:round;stroke-linejoin:round;stroke-miterlimit:4;stroke-dasharray:none;paint-order:markers stroke fill;filter:url(#filter1380-4)"
       d="M 222.69962,146.93207 A 31.270535,30.067821 0 0 0 191.42918,177 31.270535,30.067821 0 0 0 222.69962,207.06793 31.270535,30.067821 0 0 0 253.97006,177 31.270535,30.067821 0 0 0 222.69962,146.93207 Z m -16.66306,12.07574 c 0.32535,-0.0266 0.70799,0.0391 1.12292,0.18862 0.41492,0.14949 0.86227,0.38286 1.31827,0.69092 0.45601,0.30805 0.92033,0.69081 1.36891,1.13998 l 13.05398,13.07052 12.66951,-12.65349 c 0.44916,-0.44859 0.92061,-0.83751 1.38907,-1.15704 0.46845,-0.31951 0.93374,-0.56949 1.37045,-0.74 0.4367,-0.17051 0.84499,-0.26145 1.1989,-0.26303 0.17696,-8e-4 0.3401,0.0199 0.48679,0.0651 0.1467,0.0452 0.27702,0.1141 0.38706,0.20774 0.11005,0.0936 0.19471,0.2078 0.25528,0.33899 0.0606,0.13119 0.0968,0.27917 0.11007,0.44184 0.0266,0.32536 -0.0391,0.70801 -0.18862,1.12293 -0.14948,0.41493 -0.38285,0.86226 -0.69091,1.31826 -0.30806,0.456 -0.69083,0.92032 -1.13999,1.36891 l -12.90877,12.89224 12.60543,12.62197 c 0.44858,0.44915 0.83753,0.92061 1.15704,1.38906 0.31951,0.46846 0.56949,0.93376 0.74001,1.37046 0.17052,0.43671 0.26103,0.84497 0.26303,1.19889 8e-4,0.17695 -0.0204,0.3401 -0.0656,0.48679 -0.0452,0.14669 -0.11414,0.27702 -0.20774,0.38706 -0.0936,0.11005 -0.20781,0.19468 -0.339,0.25528 -0.13119,0.0606 -0.27915,0.0968 -0.44183,0.11007 -0.32535,0.0266 -0.708,-0.0391 -1.12293,-0.18862 -0.41492,-0.14948 -0.86226,-0.38285 -1.31827,-0.69091 -0.45599,-0.30805 -0.92031,-0.69081 -1.36891,-1.13998 l -12.84417,-12.86072 -12.7832,12.76666 c -0.44916,0.4486 -0.9206,0.83752 -1.38906,1.15704 -0.46845,0.31951 -0.93375,0.5695 -1.37046,0.74001 -0.4367,0.1705 -0.84498,0.26145 -1.1989,0.26303 -0.17696,7.8e-4 -0.3401,-0.02 -0.48679,-0.0651 -0.1467,-0.0452 -0.27701,-0.1141 -0.38705,-0.20774 -0.11004,-0.0936 -0.19472,-0.20781 -0.25529,-0.339 -0.0606,-0.13119 -0.0968,-0.27916 -0.11007,-0.44183 -0.0266,-0.32535 0.0391,-0.70801 0.18862,-1.12293 0.14948,-0.41493 0.38286,-0.86226 0.69092,-1.31827 0.30806,-0.456 0.69082,-0.92032 1.13998,-1.36891 l 13.02243,-13.0054 -12.81524,-12.83178 c -0.44859,-0.44917 -0.83753,-0.92061 -1.15703,-1.38906 -0.31952,-0.46846 -0.5695,-0.93376 -0.74001,-1.37046 -0.17053,-0.43671 -0.26103,-0.84497 -0.26303,-1.19889 -8e-4,-0.17696 0.0204,-0.34011 0.0656,-0.4868 0.0452,-0.14669 0.11413,-0.27701 0.20773,-0.38705 0.0936,-0.11005 0.20781,-0.19468 0.339,-0.25528 0.13119,-0.0606 0.27915,-0.0968 0.44184,-0.11008 z"
       id="path1100-0" />
  </g>
</svg>
