<?xml version="1.0" encoding="UTF-8" standalone="no"?>
<svg
   xmlns:dc="http://purl.org/dc/elements/1.1/"
   xmlns:cc="http://creativecommons.org/ns#"
   xmlns:rdf="http://www.w3.org/1999/02/22-rdf-syntax-ns#"
   xmlns:svg="http://www.w3.org/2000/svg"
   xmlns="http://www.w3.org/2000/svg"
   xmlns:sodipodi="http://sodipodi.sourceforge.net/DTD/sodipodi-0.dtd"
   xmlns:inkscape="http://www.inkscape.org/namespaces/inkscape"
   enable-background="new 0 0 256 256"
   version="1.1"
   viewBox="-15 -15 286 286"
   preserveAspectRatio="xMidYMid meet"
   xml:space="preserve"
   id="svg855"
   sodipodi:docname="filter_control_shadow_hover.svg"
   inkscape:version="0.92.4 (5da689c313, 2019-01-14)"><metadata
     id="metadata861"><rdf:RDF><cc:Work
         rdf:about=""><dc:format>image/svg+xml</dc:format><dc:type
           rdf:resource="http://purl.org/dc/dcmitype/StillImage" /><dc:title></dc:title></cc:Work></rdf:RDF></metadata><defs
     id="defs859"><filter
       style="color-interpolation-filters:sRGB;"
       inkscape:label="Drop Shadow"
       id="filter945"><feFlood
         flood-opacity="0.498039"
         flood-color="rgb(0,0,0)"
         result="flood"
         id="feFlood935" /><feComposite
         in="flood"
         in2="SourceGraphic"
         operator="in"
         result="composite1"
         id="feComposite937" /><feGaussianBlur
         in="composite1"
         stdDeviation="2.1"
         result="blur"
         id="feGaussianBlur939" /><feOffset
         dx="2.7"
         dy="2.4"
         result="offset"
         id="feOffset941" /><feComposite
         in="SourceGraphic"
         in2="offset"
         operator="over"
         result="composite2"
         id="feComposite943" /></filter></defs><sodipodi:namedview
     pagecolor="#ffffff"
     bordercolor="#666666"
     borderopacity="1"
     objecttolerance="10"
     gridtolerance="10"
     guidetolerance="10"
     inkscape:pageopacity="0"
     inkscape:pageshadow="2"
     inkscape:window-width="1366"
     inkscape:window-height="705"
     id="namedview857"
     showgrid="false"
     inkscape:zoom="2.09375"
     inkscape:cx="128"
     inkscape:cy="128"
     inkscape:window-x="-8"
     inkscape:window-y="-8"
     inkscape:window-maximized="1"
     inkscape:current-layer="Layer_1" /><g
     id="Layer_1"><circle
       cx="128"
       cy="128"
       fill="#2AB1E0"
       r="128"
       id="circle839"
       style="fill:#ff6318;fill-opacity:1;filter:url(#filter945)" /></g><g
     id="Layer_2"><path
       d="M138,193c0,5.521-4.477,10-10,10l0,0   c-5.523,0-10-4.479-10-10V63c0-5.523,4.477-10,10-10l0,0c5.523,0,10,4.477,10,10V193z"
       fill="#17819E"
       stroke="#F9F9FA"
       stroke-miterlimit="10"
       stroke-width="5"
       id="path842" /><path
       d="M186.5,193c0,5.521-4.477,10-10,10l0,0   c-5.523,0-10-4.479-10-10V63c0-5.523,4.477-10,10-10l0,0c5.523,0,10,4.477,10,10V193z"
       fill="#17819E"
       stroke="#F9F9FA"
       stroke-miterlimit="10"
       stroke-width="5"
       id="path844" /><path
       d="M88.638,193c0,5.521-4.477,10-10,10l0,0   c-5.523,0-10-4.479-10-10V63c0-5.523,4.477-10,10-10l0,0c5.523,0,10,4.477,10,10V193z"
       fill="#17819E"
       stroke="#F9F9FA"
       stroke-miterlimit="10"
       stroke-width="5"
       id="path846" /><circle
       cx="78.638"
       cy="96.258"
       fill="#CBB92D"
       r="13.5"
       stroke="#F9F9FA"
       stroke-miterlimit="10"
       stroke-width="5"
       id="circle848" /><circle
       cx="128"
       cy="153"
       fill="#CBB92D"
       r="13.5"
       stroke="#F9F9FA"
       stroke-miterlimit="10"
       stroke-width="5"
       id="circle850" /><circle
       cx="176.5"
       cy="123.258"
       fill="#CBB92D"
       r="13.5"
       stroke="#F9F9FA"
       stroke-miterlimit="10"
       stroke-width="5"
       id="circle852" /></g></svg>