<?xml version="1.0" encoding="UTF-8" standalone="no"?>
<!-- Created with Inkscape (http://www.inkscape.org/) -->

<svg
   xmlns:dc="http://purl.org/dc/elements/1.1/"
   xmlns:cc="http://creativecommons.org/ns#"
   xmlns:rdf="http://www.w3.org/1999/02/22-rdf-syntax-ns#"
   xmlns:svg="http://www.w3.org/2000/svg"
   xmlns="http://www.w3.org/2000/svg"
   xmlns:sodipodi="http://sodipodi.sourceforge.net/DTD/sodipodi-0.dtd"
   xmlns:inkscape="http://www.inkscape.org/namespaces/inkscape"
   width="210mm"
   height="297mm"
   viewBox="0 0 210 297"
   version="1.1"
   id="svg8"
   sodipodi:docname="media_expand_combined.svg"
   inkscape:version="0.92.4 (5da689c313, 2019-01-14)">
  <defs
     id="defs2" />
  <sodipodi:namedview
     id="base"
     pagecolor="#ffffff"
     bordercolor="#666666"
     borderopacity="1.0"
     inkscape:pageopacity="0.0"
     inkscape:pageshadow="2"
     inkscape:zoom="0.7"
     inkscape:cx="235.20211"
     inkscape:cy="674.28571"
     inkscape:document-units="mm"
     inkscape:current-layer="layer1"
     showgrid="false"
     inkscape:window-width="1366"
     inkscape:window-height="705"
     inkscape:window-x="-8"
     inkscape:window-y="-8"
     inkscape:window-maximized="1" />
  <metadata
     id="metadata5">
    <rdf:RDF>
      <cc:Work
         rdf:about="">
        <dc:format>image/svg+xml</dc:format>
        <dc:type
           rdf:resource="http://purl.org/dc/dcmitype/StillImage" />
        <dc:title></dc:title>
      </cc:Work>
    </rdf:RDF>
  </metadata>
  <g
     inkscape:label="Layer 1"
     inkscape:groupmode="layer"
     id="layer1">
    <g
       id="g857">
      <circle
         style="fill:#4285b2;stroke-width:1.02051711"
         cx="126.7785"
         cy="145.24333"
         r="31.380903"
         id="circle1770" />
      <path
         inkscape:connector-curvature="0"
         style="fill:#2a5b83;stroke-width:1.02051711"
         d="m 104.58837,123.05318 c 12.25539,-12.25639 32.12487,-12.25639 44.37921,0 12.25543,12.25338 12.54012,31.80238 -0.55006,44.91503"
         id="path1772" />
      <g
         transform="matrix(1.0205172,0,0,1.0205172,94.121936,112.58574)"
         id="g1817">
        <rect
           style="fill:#fffcf3"
           height="27"
           width="39"
           x="12"
           y="25"
           id="rect1774" />
        <polygon
           style="fill:#e5e3df"
           points="51,52 51,27.526 47.923,25 39.279,25 22.531,41.67 32.642,52 "
           id="polygon1776" />
        <rect
           style="fill:#eda71d"
           height="12"
           width="11"
           x="40"
           y="12"
           id="rect1778" />
        <rect
           style="fill:#ef8a1b"
           height="12"
           width="8"
           x="43"
           y="12"
           id="rect1780" />
        <polyline
           style="fill:#ea6f1c"
           points="39,12 50,12 50,24   "
           id="polyline1782" />
        <g
           id="g1812">
          <path
             style="fill:#5aa6d1"
             inkscape:connector-curvature="0"
             d="m 43.474,31.948 c 0,6.338 -5.135,11.474 -11.474,11.474 -6.341,0 -11.476,-5.136 -11.476,-11.474 0,-6.338 5.135,-11.474 11.476,-11.474 6.339,0 11.474,5.136 11.474,11.474 z"
             id="path1784" />
          <path
             style="fill:#4285b2"
             inkscape:connector-curvature="0"
             d="m 23.885,23.833 c 4.482,-4.479 11.748,-4.48 16.229,0 4.483,4.482 4.483,11.748 0,16.229"
             id="path1786" />
          <g
             id="g1792">
            <circle
               style="fill:#13d1ba"
               cx="32"
               cy="31.948"
               r="7.895"
               id="circle1788" />
            <path
               style="fill:#0faaa6"
               inkscape:connector-curvature="0"
               d="m 32,24.054 c 4.358,0 7.895,3.535 7.895,7.895 0,4.361 -3.536,7.896 -7.895,7.896"
               id="path1790" />
          </g>
          <g
             id="g1798">
            <circle
               style="fill:#13d1ba"
               cx="32"
               cy="31.948999"
               r="5.0689998"
               id="circle1794" />
            <path
               style="fill:#0faaa6"
               inkscape:connector-curvature="0"
               d="m 26.932,31.948 c 0,-2.801 2.269,-5.068 5.068,-5.068 2.799,0 5.066,2.268 5.066,5.068"
               id="path1796" />
          </g>
          <g
             style="opacity:0.6"
             id="g1804">
            <circle
               style="fill:#13d1ba"
               cx="32"
               cy="31.948999"
               r="5.0689998"
               id="circle1800" />
            <path
               style="fill:#0faaa6"
               inkscape:connector-curvature="0"
               d="m 28.416,35.533 c -1.979,-1.979 -1.979,-5.188 0,-7.169 1.979,-1.979 5.188,-1.979 7.167,0"
               id="path1802" />
          </g>
          <circle
             style="fill:#f0fffd"
             cx="29.964001"
             cy="29.884001"
             r="1.649"
             id="circle1806" />
          <circle
             style="fill:#f0fffd"
             cx="33.402"
             cy="33.040001"
             r="0.245"
             id="circle1808" />
          <path
             style="fill:#f0fffd"
             inkscape:connector-curvature="0"
             d="m 35.474,34.655 c 0,0.369 -0.301,0.667 -0.666,0.667 -0.369,0 -0.668,-0.298 -0.668,-0.667 0,-0.369 0.299,-0.666 0.668,-0.666 0.365,0 0.666,0.297 0.666,0.666 z"
             id="path1810" />
        </g>
        <path
           style="fill:#4285b2"
           inkscape:connector-curvature="0"
           d="M 48.929,10 H 15.071 C 12.155,10 10,12.149 10,15.062 V 48.943 C 10,51.851 12.155,54 15.071,54 H 48.928 C 51.844,54 54,51.851 54,48.942 V 15.062 C 54,12.149 51.844,10 48.929,10 Z M 49,20.613 C 49,21.379 48.379,22 47.613,22 H 43.386 C 42.621,22 42,21.379 42,20.613 V 16.386 C 42,15.621 42.621,15 43.387,15 h 4.227 C 48.379,15 49,15.621 49,16.387 Z M 32.051,23.53 c 4.718,0 8.542,3.814 8.542,8.52 0,4.709 -3.824,8.523 -8.542,8.523 -4.717,0 -8.54,-3.814 -8.54,-8.523 0,-4.705 3.823,-8.52 8.54,-8.52 z M 50,48.655 C 50,49.422 49.421,50 48.655,50 H 15.344 C 14.578,50 14,49.422 14,48.655 V 28 h 5.507 c -0.723,1 -0.967,2.9 -0.967,4.132 0,7.436 6.062,13.442 13.511,13.442 7.451,0 13.514,-5.986 13.514,-13.422 C 45.565,30.921 45.39,29 44.492,28 H 50 Z"
           id="Instagram" />
        <path
           style="fill:#124568"
           inkscape:connector-curvature="0"
           d="M 54,33.615 V 22.348 l -5,-5.551 v 4.099 C 49,21.662 48.034,22 47.269,22 h -4.166 c -0.086,0 -0.171,0.214 -0.254,0.197 L 48.429,28 H 50 v 1.452 z"
           id="path1815" />
      </g>
      <path
         inkscape:connector-curvature="0"
         style="fill:#2a5b83;stroke-width:1.02051711"
         d="m 120.17882,139.68048 c 1.59813,-1.88183 3.98408,-3.08195 6.65171,-3.08195 4.81482,0 8.71725,3.89224 8.71725,8.6948 0,2.66863 -1.21031,5.05462 -3.1044,6.65276 l 3.57894,3.57689 c 2.81562,-2.52167 4.59948,-6.08025 4.59948,-10.14495 -0.001,-1.25829 -0.17858,-3.19728 -1.09602,-4.21778 h 5.62203 V 162.239 c 0,0.66742 -0.44087,1.22361 -1.05827,1.37361 l 4.15349,4.18312 c 1.8053,-0.60927 2.00738,-2.77378 2.00738,-5.26383 v -34.57511 c 0,-2.97276 -3.22078,-6.1864 -6.19558,-6.1864 h -34.55266 c -2.49927,0 -4.5954,0.18784 -5.20261,1.99207 z m 23.94848,-6.0588 c 0,0.78171 -0.63375,1.41546 -1.41547,1.41546 h -4.08923 c -0.78067,0 -1.63894,-0.63375 -1.63894,-1.41546 v -4.31376 c 0,-0.78067 0.85827,-1.41442 1.63894,-1.41442 h 4.08923 c 0.78172,0 1.41547,0.63375 1.41547,1.41547 z"
         id="path1819" />
    </g>
    <g
       id="g2506"
       transform="matrix(0.58749999,0,0,0.58749999,71.739879,47.928346)">
      <circle
         style="opacity:1;fill:#ff6600;fill-opacity:0.91959797;stroke-width:0.1;stroke-linecap:round;stroke-linejoin:round;stroke-miterlimit:4;stroke-dasharray:none;paint-order:markers stroke fill"
         id="path815"
         cx="93.738091"
         cy="114.81547"
         r="15.119047" />
      <g
         id="g851"
         transform="translate(-3.7041668,-35.454183)"
         style="fill:#ffffff">
        <rect
           transform="rotate(-134.74053)"
           ry="3.0238171"
           rx="5.3306661"
           y="-46.167595"
           x="-173.47607"
           height="15.119047"
           width="3.4017856"
           id="rect817-1"
           style="opacity:1;fill:#ffffff;fill-opacity:0.91959797;stroke-width:0.1;stroke-linecap:round;stroke-linejoin:round;stroke-miterlimit:4;stroke-dasharray:none;paint-order:markers stroke fill" />
        <rect
           transform="rotate(-45.354166)"
           ry="3.0238168"
           rx="5.3306661"
           y="169.73203"
           x="-36.270012"
           height="15.119047"
           width="3.4017856"
           id="rect817-1-3"
           style="opacity:1;fill:#ffffff;fill-opacity:0.91959797;stroke-width:0.1;stroke-linecap:round;stroke-linejoin:round;stroke-miterlimit:4;stroke-dasharray:none;paint-order:markers stroke fill" />
      </g>
    </g>
  </g>
</svg>
